*************************************************************

Sistema de monitoramento de ambiente (Sala de Servidores)

Versão 1.2 (Julho/2020)

*************************************************************

*************************************************************

Sistema de monitoramento de ambiente (Sala de Servidores)

Versão 1.2 (Julho/2020)

*************************************************************

ID do equipamento é 84

Tamanho Lido: 4

SSID: ICP1

Tamanho Lido: 13

Pass: 

%@14CompuT9#!

Aguardando msg via serial durante 10 segundos

Iniciando Conexão WiFi

Conectando na rede WiFi ICP1 ...

.Tentativa 1

.Tentativa 2

.Tentativa 3

.Tentativa 4

set wifissid=ICP1
set wifipass=%@14CompuT9#!
